This is XeTeX, Version 3.14159265-2.6-0.99998 (TeX Live 2017/Debian) (preloaded format=xelatex 2019.2.24)  10 MAY 2019 16:06
entering extended mode
 restricted \write18 enabled.
 %&-line parsing enabled.
**cv_10.tex

! Emergency stop.
<*> cv_10.tex
             
End of file on the terminal!

 
Here is how much of TeX's memory you used:
 2 strings out of 493007
 15 string characters out of 6136719
 61824 words of memory out of 5000000
 4075 multiletter control sequences out of 15000+600000
 3640 words of font info for 14 fonts, out of 8000000 for 9000
 1348 hyphenation exceptions out of 8191
 0i,0n,0p,1b,6s stack positions out of 5000i,500n,10000p,200000b,80000s
No pages of output.
